…
###### Example 2

###### Using the Vancouver Trees data set, the function is calculating the miniumum, maximum, and the mean for the diameter for each genus name.

``` r
# Vancouver Trees Example
Function1(vancouver_trees,genus_name,diameter)
```

    ## # A tibble: 97 x 4
    ##    genus_name    min   max  mean
    ##    <chr>       <dbl> <dbl> <dbl>
    ##  1 ABIES           1  42.5 12.9 
    ##  2 ACER            0 317   10.6 
    ##  3 AESCULUS        0  64   23.7 
    ##  4 AILANTHUS       3  21.5 15.9 
    ##  5 ALBIZIA         6   6    6   
    ##  6 ALNUS           0  40   17.5 
    ##  7 AMELANCHIER     0  20    3.21
    ##  8 ARALIA          3  12    6.81
    ##  9 ARAUCARIA       3  32   11.4 
    ## 10 ARBUTUS         6  33   18.4 
    ## # ... with 87 more rows
…
